…
Now, one way to get around the lack of the cross join function in dplyr as explored in [this recent blog post](http://jarrettmeyer.com/2018/07/10/cross-join-dplyr) is to "create a fake data column and use the full join function", but that sounds like more code than I would like to type.

Instead, we will look at a simpler and more elegant way, which is to use the crossing function from the tidyr package.

``` r
library(tidyr) # load tidyr package

crossing(overpriced_coffee_shop_menu, coffee_brand) # This is literally all we have to do to get the Cartesian product.
```

    ## # A tibble: 21 x 5
    ##    name      drink_type    `price ($)` drink_type1         brand          
    ##    <chr>     <chr>         <chr>       <chr>               <chr>          
    ##  1 latte     espresso-bas… 6.00        espresso-based      Lavazza Super …
    ##  2 latte     espresso-bas… 6.00        caffinated drip co… Kicking Horse …
    ##  3 latte     espresso-bas… 6.00        decaf drip coffee   Maxwell House  
    ##  4 cappucci… espresso-bas… 6.00        espresso-based      Lavazza Super …
    ##  5 cappucci… espresso-bas… 6.00        caffinated drip co… Kicking Horse …
    ##  6 cappucci… espresso-bas… 6.00        decaf drip coffee   Maxwell House  
    ##  7 americano espresso-bas… 5.00        espresso-based      Lavazza Super …
    ##  8 americano espresso-bas… 5.00        caffinated drip co… Kicking Horse …
    ##  9 americano espresso-bas… 5.00        decaf drip coffee   Maxwell House  
    ## 10 cafe_moc… espresso-bas… 6.50        espresso-based      Lavazza Super …
    ## # ... with 11 more rows
…
